<svg width="30" height="30" viewBox="0 0 30 30" fill="none" xmlns="http://www.w3.org/2000/svg">
    <g clip-path="url(#clip0)">
        <path d="M2.25 7.52885L15 1.5L27.75 7.52885V7.84615V9.55C27.75 9.66046 27.6605 9.75 27.55 9.75H2.45C2.33954 9.75 2.25 9.66046 2.25 9.55V7.84615V7.52885Z" stroke="#1567C7" stroke-width="2"/>
        <circle cx="15" cy="6" r="1.5" stroke="#1567C7" stroke-width="2"/>
        <mask id="path-3-inside-1" fill="white">
            <rect x="2.25" y="24.75" width="25.5" height="5.25" rx="1"/>
        </mask>
        <rect x="2.25" y="24.75" width="25.5" height="5.25" rx="1" stroke="#1567C7" stroke-width="4" mask="url(#path-3-inside-1)"/>
        <line x1="4.25" y1="25.5" x2="4.25" y2="10.5" stroke="#1567C7" stroke-width="2"/>
        <line x1="11" y1="25.5" x2="11" y2="10.5" stroke="#1567C7" stroke-width="2"/>
        <line x1="18.5" y1="25.5" x2="18.5" y2="10.5" stroke="#1567C7" stroke-width="2"/>
        <line x1="25.25" y1="25.5" x2="25.25" y2="10.5" stroke="#1567C7" stroke-width="2"/>
    </g>
    <defs>
        <clipPath id="clip0">
            <rect width="30" height="30" fill="white"/>
        </clipPath>
    </defs>
</svg>
